{
    "defaultSeverity": "error",
    "extends": [
        "tslint:recommended"
    ],
    "jsRules": {},
    "rules": {
        "quotemark": false,
        "no-var-requires":false
    },
    "rulesDirectory": []
}